%!PS-Adobe-3.0 EPSF-3.0
%%Creator: (MATLAB, The Mathworks, Inc. Version 9.2.0.556344 \(R2017a\). Operating System: Mac OS X)
%%Title: /Users/fruzti/Dropbox/PhD/Articles/CAMSAP2017/matlab_files/minEigResult.eps
%%CreationDate: 2017-06-08T17:17:43
%%Pages: (atend)
%%BoundingBox: 0 0 560 420
%%LanguageLevel: 3
%%EndComments
%%BeginProlog
%%BeginResource: procset (Apache XML Graphics Std ProcSet) 1.2 0
%%Version: 1.2 0
%%Copyright: (Copyright 2001-2003,2010 The Apache Software Foundation. License terms: http://www.apache.org/licenses/LICENSE-2.0)
/bd{bind def}bind def
/ld{load def}bd
/GR/grestore ld
/M/moveto ld
/LJ/setlinejoin ld
/C/curveto ld
/f/fill ld
/LW/setlinewidth ld
/GC/setgray ld
/t/show ld
/N/newpath ld
/CT/concat ld
/cp/closepath ld
/S/stroke ld
/L/lineto ld
/CC/setcmykcolor ld
/A/ashow ld
/GS/gsave ld
/RC/setrgbcolor ld
/RM/rmoveto ld
/ML/setmiterlimit ld
/re {4 2 roll M
1 index 0 rlineto
0 exch rlineto
neg 0 rlineto
cp } bd
/_ctm matrix def
/_tm matrix def
/BT { _ctm currentmatrix pop matrix _tm copy pop 0 0 moveto } bd
/ET { _ctm setmatrix } bd
/iTm { _ctm setmatrix _tm concat } bd
/Tm { _tm astore pop iTm 0 0 moveto } bd
/ux 0.0 def
/uy 0.0 def
/F {
  /Tp exch def
  /Tf exch def
  Tf findfont Tp scalefont setfont
  /cf Tf def  /cs Tp def
} bd
/ULS {currentpoint /uy exch def /ux exch def} bd
/ULE {
  /Tcx currentpoint pop def
  gsave
  newpath
  cf findfont cs scalefont dup
  /FontMatrix get 0 get /Ts exch def /FontInfo get dup
  /UnderlinePosition get Ts mul /To exch def
  /UnderlineThickness get Ts mul /Tt exch def
  ux uy To add moveto  Tcx uy To add lineto
  Tt setlinewidth stroke
  grestore
} bd
/OLE {
  /Tcx currentpoint pop def
  gsave
  newpath
  cf findfont cs scalefont dup
  /FontMatrix get 0 get /Ts exch def /FontInfo get dup
  /UnderlinePosition get Ts mul /To exch def
  /UnderlineThickness get Ts mul /Tt exch def
  ux uy To add cs add moveto Tcx uy To add cs add lineto
  Tt setlinewidth stroke
  grestore
} bd
/SOE {
  /Tcx currentpoint pop def
  gsave
  newpath
  cf findfont cs scalefont dup
  /FontMatrix get 0 get /Ts exch def /FontInfo get dup
  /UnderlinePosition get Ts mul /To exch def
  /UnderlineThickness get Ts mul /Tt exch def
  ux uy To add cs 10 mul 26 idiv add moveto Tcx uy To add cs 10 mul 26 idiv add lineto
  Tt setlinewidth stroke
  grestore
} bd
/QT {
/Y22 exch store
/X22 exch store
/Y21 exch store
/X21 exch store
currentpoint
/Y21 load 2 mul add 3 div exch
/X21 load 2 mul add 3 div exch
/X21 load 2 mul /X22 load add 3 div
/Y21 load 2 mul /Y22 load add 3 div
/X22 load /Y22 load curveto
} bd
/SSPD {
dup length /d exch dict def
{
/v exch def
/k exch def
currentpagedevice k known {
/cpdv currentpagedevice k get def
v cpdv ne {
/upd false def
/nullv v type /nulltype eq def
/nullcpdv cpdv type /nulltype eq def
nullv nullcpdv or
{
/upd true def
} {
/sametype v type cpdv type eq def
sametype {
v type /arraytype eq {
/vlen v length def
/cpdvlen cpdv length def
vlen cpdvlen eq {
0 1 vlen 1 sub {
/i exch def
/obj v i get def
/cpdobj cpdv i get def
obj cpdobj ne {
/upd true def
exit
} if
} for
} {
/upd true def
} ifelse
} {
v type /dicttype eq {
v {
/dv exch def
/dk exch def
/cpddv cpdv dk get def
dv cpddv ne {
/upd true def
exit
} if
} forall
} {
/upd true def
} ifelse
} ifelse
} if
} ifelse
upd true eq {
d k v put
} if
} if
} if
} forall
d length 0 gt {
d setpagedevice
} if
} bd
/RE { % /NewFontName [NewEncodingArray] /FontName RE -
  findfont dup length dict begin
  {
    1 index /FID ne
    {def} {pop pop} ifelse
  } forall
  /Encoding exch def
  /FontName 1 index def
  currentdict definefont pop
  end
} bind def
%%EndResource
%%BeginResource: procset (Apache XML Graphics EPS ProcSet) 1.0 0
%%Version: 1.0 0
%%Copyright: (Copyright 2002-2003 The Apache Software Foundation. License terms: http://www.apache.org/licenses/LICENSE-2.0)
/BeginEPSF { %def
/b4_Inc_state save def         % Save state for cleanup
/dict_count countdictstack def % Count objects on dict stack
/op_count count 1 sub def      % Count objects on operand stack
userdict begin                 % Push userdict on dict stack
/showpage { } def              % Redefine showpage, { } = null proc
0 setgray 0 setlinecap         % Prepare graphics state
1 setlinewidth 0 setlinejoin
10 setmiterlimit [ ] 0 setdash newpath
/languagelevel where           % If level not equal to 1 then
{pop languagelevel             % set strokeadjust and
1 ne                           % overprint to their defaults.
{false setstrokeadjust false setoverprint
} if
} if
} bd
/EndEPSF { %def
count op_count sub {pop} repeat            % Clean up stacks
countdictstack dict_count sub {end} repeat
b4_Inc_state restore
} bd
%%EndResource
%FOPBeginFontDict
%%IncludeResource: font Courier-Bold
%%IncludeResource: font Helvetica
%%IncludeResource: font Courier-BoldOblique
%%IncludeResource: font Courier-Oblique
%%IncludeResource: font Times-Roman
%%IncludeResource: font Helvetica-BoldOblique
%%IncludeResource: font Helvetica-Bold
%%IncludeResource: font Helvetica-Oblique
%%IncludeResource: font Times-BoldItalic
%%IncludeResource: font Courier
%%IncludeResource: font Times-Italic
%%IncludeResource: font Times-Bold
%%IncludeResource: font Symbol
%%IncludeResource: font ZapfDingbats
%FOPEndFontDict
%%BeginResource: encoding WinAnsiEncoding
/WinAnsiEncoding [
/.notdef /.notdef /.notdef /.notdef /.notdef
/.notdef /.notdef /.notdef /.notdef /.notdef
/.notdef /.notdef /.notdef /.notdef /.notdef
/.notdef /.notdef /.notdef /.notdef /.notdef
/.notdef /.notdef /.notdef /.notdef /.notdef
/.notdef /.notdef /.notdef /.notdef /.notdef
/.notdef /.notdef /space /exclam /quotedbl
/numbersign /dollar /percent /ampersand /quotesingle
/parenleft /parenright /asterisk /plus /comma
/hyphen /period /slash /zero /one
/two /three /four /five /six
/seven /eight /nine /colon /semicolon
/less /equal /greater /question /at
/A /B /C /D /E
/F /G /H /I /J
/K /L /M /N /O
/P /Q /R /S /T
/U /V /W /X /Y
/Z /bracketleft /backslash /bracketright /asciicircum
/underscore /quoteleft /a /b /c
/d /e /f /g /h
/i /j /k /l /m
/n /o /p /q /r
/s /t /u /v /w
/x /y /z /braceleft /bar
/braceright /asciitilde /bullet /Euro /bullet
/quotesinglbase /florin /quotedblbase /ellipsis /dagger
/daggerdbl /circumflex /perthousand /Scaron /guilsinglleft
/OE /bullet /Zcaron /bullet /bullet
/quoteleft /quoteright /quotedblleft /quotedblright /bullet
/endash /emdash /asciitilde /trademark /scaron
/guilsinglright /oe /bullet /zcaron /Ydieresis
/space /exclamdown /cent /sterling /currency
/yen /brokenbar /section /dieresis /copyright
/ordfeminine /guillemotleft /logicalnot /sfthyphen /registered
/macron /degree /plusminus /twosuperior /threesuperior
/acute /mu /paragraph /middot /cedilla
/onesuperior /ordmasculine /guillemotright /onequarter /onehalf
/threequarters /questiondown /Agrave /Aacute /Acircumflex
/Atilde /Adieresis /Aring /AE /Ccedilla
/Egrave /Eacute /Ecircumflex /Edieresis /Igrave
/Iacute /Icircumflex /Idieresis /Eth /Ntilde
/Ograve /Oacute /Ocircumflex /Otilde /Odieresis
/multiply /Oslash /Ugrave /Uacute /Ucircumflex
/Udieresis /Yacute /Thorn /germandbls /agrave
/aacute /acircumflex /atilde /adieresis /aring
/ae /ccedilla /egrave /eacute /ecircumflex
/edieresis /igrave /iacute /icircumflex /idieresis
/eth /ntilde /ograve /oacute /ocircumflex
/otilde /odieresis /divide /oslash /ugrave
/uacute /ucircumflex /udieresis /yacute /thorn
/ydieresis
] def
%%EndResource
%FOPBeginFontReencode
/Courier-Bold findfont
dup length dict begin
  {1 index /FID ne {def} {pop pop} ifelse} forall
  /Encoding WinAnsiEncoding def
  currentdict
end
/Courier-Bold exch definefont pop
/Helvetica findfont
dup length dict begin
  {1 index /FID ne {def} {pop pop} ifelse} forall
  /Encoding WinAnsiEncoding def
  currentdict
end
/Helvetica exch definefont pop
/Courier-BoldOblique findfont
dup length dict begin
  {1 index /FID ne {def} {pop pop} ifelse} forall
  /Encoding WinAnsiEncoding def
  currentdict
end
/Courier-BoldOblique exch definefont pop
/Courier-Oblique findfont
dup length dict begin
  {1 index /FID ne {def} {pop pop} ifelse} forall
  /Encoding WinAnsiEncoding def
  currentdict
end
/Courier-Oblique exch definefont pop
/Times-Roman findfont
dup length dict begin
  {1 index /FID ne {def} {pop pop} ifelse} forall
  /Encoding WinAnsiEncoding def
  currentdict
end
/Times-Roman exch definefont pop
/Helvetica-BoldOblique findfont
dup length dict begin
  {1 index /FID ne {def} {pop pop} ifelse} forall
  /Encoding WinAnsiEncoding def
  currentdict
end
/Helvetica-BoldOblique exch definefont pop
/Helvetica-Bold findfont
dup length dict begin
  {1 index /FID ne {def} {pop pop} ifelse} forall
  /Encoding WinAnsiEncoding def
  currentdict
end
/Helvetica-Bold exch definefont pop
/Helvetica-Oblique findfont
dup length dict begin
  {1 index /FID ne {def} {pop pop} ifelse} forall
  /Encoding WinAnsiEncoding def
  currentdict
end
/Helvetica-Oblique exch definefont pop
/Times-BoldItalic findfont
dup length dict begin
  {1 index /FID ne {def} {pop pop} ifelse} forall
  /Encoding WinAnsiEncoding def
  currentdict
end
/Times-BoldItalic exch definefont pop
/Courier findfont
dup length dict begin
  {1 index /FID ne {def} {pop pop} ifelse} forall
  /Encoding WinAnsiEncoding def
  currentdict
end
/Courier exch definefont pop
/Times-Italic findfont
dup length dict begin
  {1 index /FID ne {def} {pop pop} ifelse} forall
  /Encoding WinAnsiEncoding def
  currentdict
end
/Times-Italic exch definefont pop
/Times-Bold findfont
dup length dict begin
  {1 index /FID ne {def} {pop pop} ifelse} forall
  /Encoding WinAnsiEncoding def
  currentdict
end
/Times-Bold exch definefont pop
%FOPEndFontReencode
%%EndProlog
%%Page: 1 1
%%PageBoundingBox: 0 0 560 420
%%BeginPageSetup
[1 0 0 -1 0 420] CT
%%EndPageSetup
GS
1 GC
N
0 0 560 420 re
f
GR
GS
1 GC
N
0 0 560 420 re
f
GR
GS
1 GC
N
73 374 M
507 374 L
507 31.5 L
73 31.5 L
cp
f
GR
GS
0.149 GC
1 LJ
0.5 LW
N
73 374 M
507 374 L
S
GR
GS
1 GC
N
73 374 M
116.4 374 L
159.8 374 L
203.2 374 L
246.6 374 L
290 374 L
333.4 374 L
376.8 374 L
420.2 374 L
463.6 374 L
507 374 L
507 58.72 L
463.6 110.281 L
420.2 168.279 L
376.8 260.486 L
333.4 277.67 L
290 291.898 L
246.6 309.661 L
203.2 335.944 L
159.8 335.944 L
116.4 335.944 L
73 335.944 L
cp
f
GR
GS
0.902 GC
N
73 335.944 M
116.4 335.944 L
159.8 335.944 L
203.2 335.944 L
246.6 309.661 L
290 291.898 L
333.4 277.67 L
376.8 260.486 L
420.2 168.279 L
463.6 110.281 L
507 58.72 L
507 58.72 L
463.6 66.128 L
420.2 74.361 L
376.8 90.324 L
333.4 102.085 L
290 123.531 L
246.6 136.264 L
203.2 138.952 L
159.8 202.581 L
116.4 223.402 L
73 254.551 L
cp
f
GR
GS
1 0 0 RC
1 LJ
0.5 LW
N
73 254.551 M
116.4 223.402 L
159.8 202.581 L
203.2 138.952 L
246.6 136.264 L
290 123.531 L
333.4 102.085 L
376.8 90.324 L
420.2 74.361 L
463.6 66.128 L
507 58.72 L
S
GR
GS
1 0 0 RC
1 LJ
0.5 LW
N
73 335.944 M
116.4 335.944 L
159.8 335.944 L
203.2 335.944 L
246.6 309.661 L
290 291.898 L
333.4 277.67 L
376.8 260.486 L
420.2 168.279 L
463.6 110.281 L
507 58.72 L
S
GR
GS
[1 0 0 1 73 335.94446] CT
1 0 0 RC
10.0 ML
N
0 -3 M
0 3 L
-3 0 M
3 0 L
S
GR
GS
[1 0 0 1 116.4 335.94446] CT
1 0 0 RC
10.0 ML
N
0 -3 M
0 3 L
-3 0 M
3 0 L
S
GR
GS
[1 0 0 1 159.8 335.94446] CT
1 0 0 RC
10.0 ML
N
0 -3 M
0 3 L
-3 0 M
3 0 L
S
GR
GS
[1 0 0 1 203.2 335.94446] CT
1 0 0 RC
10.0 ML
N
0 -3 M
0 3 L
-3 0 M
3 0 L
S
GR
GS
[1 0 0 1 246.60001 309.66068] CT
1 0 0 RC
10.0 ML
N
0 -3 M
0 3 L
-3 0 M
3 0 L
S
GR
GS
[1 0 0 1 290 291.8981] CT
1 0 0 RC
10.0 ML
N
0 -3 M
0 3 L
-3 0 M
3 0 L
S
GR
GS
[1 0 0 1 333.39999 277.6701] CT
1 0 0 RC
10.0 ML
N
0 -3 M
0 3 L
-3 0 M
3 0 L
S
GR
GS
[1 0 0 1 376.79999 260.48566] CT
1 0 0 RC
10.0 ML
N
0 -3 M
0 3 L
-3 0 M
3 0 L
S
GR
GS
[1 0 0 1 420.20001 168.27904] CT
1 0 0 RC
10.0 ML
N
0 -3 M
0 3 L
-3 0 M
3 0 L
S
GR
GS
[1 0 0 1 463.60001 110.28146] CT
1 0 0 RC
10.0 ML
N
0 -3 M
0 3 L
-3 0 M
3 0 L
S
GR
GS
[1 0 0 1 507 58.71994] CT
1 0 0 RC
10.0 ML
N
0 -3 M
0 3 L
-3 0 M
3 0 L
S
GR
GS
1 LJ
1.1 LW
N
73 254.551 M
116.4 240.497 L
159.8 213.762 L
203.2 166.36 L
246.6 149.392 L
290 138.481 L
333.4 119.978 L
376.8 98.988 L
420.2 74.642 L
463.6 66.415 L
507 58.72 L
S
GR
GS
[1 0 0 1 73 254.55139] CT
10.0 ML
1.1 LW
N
2.5 -0.5 M
2.5 -2.157 1.157 -3.5 -0.5 -3.5 C
-2.157 -3.5 -3.5 -2.157 -3.5 -0.5 C
-3.5 1.157 -2.157 2.5 -0.5 2.5 C
1.157 2.5 2.5 1.157 2.5 -0.5 C
S
GR
GS
[1 0 0 1 116.4 240.49655] CT
10.0 ML
1.1 LW
N
2.5 -0.5 M
2.5 -2.157 1.157 -3.5 -0.5 -3.5 C
-2.157 -3.5 -3.5 -2.157 -3.5 -0.5 C
-3.5 1.157 -2.157 2.5 -0.5 2.5 C
1.157 2.5 2.5 1.157 2.5 -0.5 C
S
GR
GS
[1 0 0 1 159.8 213.76216] CT
10.0 ML
1.1 LW
N
2.5 -0.5 M
2.5 -2.157 1.157 -3.5 -0.5 -3.5 C
-2.157 -3.5 -3.5 -2.157 -3.5 -0.5 C
-3.5 1.157 -2.157 2.5 -0.5 2.5 C
1.157 2.5 2.5 1.157 2.5 -0.5 C
S
GR
GS
[1 0 0 1 203.2 166.36038] CT
10.0 ML
1.1 LW
N
2.5 -0.5 M
2.5 -2.157 1.157 -3.5 -0.5 -3.5 C
-2.157 -3.5 -3.5 -2.157 -3.5 -0.5 C
-3.5 1.157 -2.157 2.5 -0.5 2.5 C
1.157 2.5 2.5 1.157 2.5 -0.5 C
S
GR
GS
[1 0 0 1 246.60001 149.39232] CT
10.0 ML
1.1 LW
N
2.5 -0.5 M
2.5 -2.157 1.157 -3.5 -0.5 -3.5 C
-2.157 -3.5 -3.5 -2.157 -3.5 -0.5 C
-3.5 1.157 -2.157 2.5 -0.5 2.5 C
1.157 2.5 2.5 1.157 2.5 -0.5 C
S
GR
GS
[1 0 0 1 290 138.48088] CT
10.0 ML
1.1 LW
N
2.5 -0.5 M
2.5 -2.157 1.157 -3.5 -0.5 -3.5 C
-2.157 -3.5 -3.5 -2.157 -3.5 -0.5 C
-3.5 1.157 -2.157 2.5 -0.5 2.5 C
1.157 2.5 2.5 1.157 2.5 -0.5 C
S
GR
GS
[1 0 0 1 333.39999 119.97759] CT
10.0 ML
1.1 LW
N
2.5 -0.5 M
2.5 -2.157 1.157 -3.5 -0.5 -3.5 C
-2.157 -3.5 -3.5 -2.157 -3.5 -0.5 C
-3.5 1.157 -2.157 2.5 -0.5 2.5 C
1.157 2.5 2.5 1.157 2.5 -0.5 C
S
GR
GS
[1 0 0 1 376.79999 98.98756] CT
10.0 ML
1.1 LW
N
2.5 -0.5 M
2.5 -2.157 1.157 -3.5 -0.5 -3.5 C
-2.157 -3.5 -3.5 -2.157 -3.5 -0.5 C
-3.5 1.157 -2.157 2.5 -0.5 2.5 C
1.157 2.5 2.5 1.157 2.5 -0.5 C
S
GR
GS
[1 0 0 1 420.20001 74.64175] CT
10.0 ML
1.1 LW
N
2.5 -0.5 M
2.5 -2.157 1.157 -3.5 -0.5 -3.5 C
-2.157 -3.5 -3.5 -2.157 -3.5 -0.5 C
-3.5 1.157 -2.157 2.5 -0.5 2.5 C
1.157 2.5 2.5 1.157 2.5 -0.5 C
S
GR
GS
[1 0 0 1 463.60001 66.41534] CT
10.0 ML
1.1 LW
N
2.5 -0.5 M
2.5 -2.157 1.157 -3.5 -0.5 -3.5 C
-2.157 -3.5 -3.5 -2.157 -3.5 -0.5 C
-3.5 1.157 -2.157 2.5 -0.5 2.5 C
1.157 2.5 2.5 1.157 2.5 -0.5 C
S
GR
GS
[1 0 0 1 507 58.71994] CT
10.0 ML
1.1 LW
N
2.5 -0.5 M
2.5 -2.157 1.157 -3.5 -0.5 -3.5 C
-2.157 -3.5 -3.5 -2.157 -3.5 -0.5 C
-3.5 1.157 -2.157 2.5 -0.5 2.5 C
1.157 2.5 2.5 1.157 2.5 -0.5 C
S
GR
GS
0 1 0 RC
1 LJ
1.1 LW
N
73 307.858 M
116.4 258.451 L
159.8 241.135 L
203.2 210.902 L
246.6 186.947 L
290 172.61 L
333.4 115.894 L
376.8 105.385 L
420.2 85.359 L
463.6 74.051 L
507 58.72 L
S
GR
GS
[1 0 0 1 73 307.85806] CT
0 1 0 RC
10.0 ML
1.1 LW
N
-2 -2 M
-2 2 L
2 2 L
2 -2 L
cp
S
GR
GS
[1 0 0 1 116.4 258.45148] CT
0 1 0 RC
10.0 ML
1.1 LW
N
-2 -2 M
-2 2 L
2 2 L
2 -2 L
cp
S
GR
GS
[1 0 0 1 159.8 241.13457] CT
0 1 0 RC
10.0 ML
1.1 LW
N
-2 -2 M
-2 2 L
2 2 L
2 -2 L
cp
S
GR
GS
[1 0 0 1 203.2 210.90204] CT
0 1 0 RC
10.0 ML
1.1 LW
N
-2 -2 M
-2 2 L
2 2 L
2 -2 L
cp
S
GR
GS
[1 0 0 1 246.60001 186.94661] CT
0 1 0 RC
10.0 ML
1.1 LW
N
-2 -2 M
-2 2 L
2 2 L
2 -2 L
cp
S
GR
GS
[1 0 0 1 290 172.60973] CT
0 1 0 RC
10.0 ML
1.1 LW
N
-2 -2 M
-2 2 L
2 2 L
2 -2 L
cp
S
GR
GS
[1 0 0 1 333.39999 115.89433] CT
0 1 0 RC
10.0 ML
1.1 LW
N
-2 -2 M
-2 2 L
2 2 L
2 -2 L
cp
S
GR
GS
[1 0 0 1 376.79999 105.38457] CT
0 1 0 RC
10.0 ML
1.1 LW
N
-2 -2 M
-2 2 L
2 2 L
2 -2 L
cp
S
GR
GS
[1 0 0 1 420.20001 85.35934] CT
0 1 0 RC
10.0 ML
1.1 LW
N
-2 -2 M
-2 2 L
2 2 L
2 -2 L
cp
S
GR
GS
[1 0 0 1 463.60001 74.0506] CT
0 1 0 RC
10.0 ML
1.1 LW
N
-2 -2 M
-2 2 L
2 2 L
2 -2 L
cp
S
GR
GS
[1 0 0 1 507 58.71994] CT
0 1 0 RC
10.0 ML
1.1 LW
N
-2 -2 M
-2 2 L
2 2 L
2 -2 L
cp
S
GR
GS
1 0 1 RC
1 LJ
1.1 LW
N
73 263.835 M
116.4 223.402 L
159.8 213.898 L
203.2 138.952 L
246.6 136.264 L
290 133.051 L
333.4 106.5 L
376.8 98.709 L
420.2 75.414 L
463.6 66.128 L
507 58.72 L
S
GR
GS
[1 0 0 1 73 263.83505] CT
1 0 1 RC
10.0 ML
1.1 LW
N
-3 0 M
0 3.99 L
3 0 L
0 -3.99 L
cp
S
GR
GS
[1 0 0 1 116.4 223.40181] CT
1 0 1 RC
10.0 ML
1.1 LW
N
-3 0 M
0 3.99 L
3 0 L
0 -3.99 L
cp
S
GR
GS
[1 0 0 1 159.8 213.89798] CT
1 0 1 RC
10.0 ML
1.1 LW
N
-3 0 M
0 3.99 L
3 0 L
0 -3.99 L
cp
S
GR
GS
[1 0 0 1 203.2 138.95187] CT
1 0 1 RC
10.0 ML
1.1 LW
N
-3 0 M
0 3.99 L
3 0 L
0 -3.99 L
cp
S
GR
GS
[1 0 0 1 246.60001 136.26405] CT
1 0 1 RC
10.0 ML
1.1 LW
N
-3 0 M
0 3.99 L
3 0 L
0 -3.99 L
cp
S
GR
GS
[1 0 0 1 290 133.05055] CT
1 0 1 RC
10.0 ML
1.1 LW
N
-3 0 M
0 3.99 L
3 0 L
0 -3.99 L
cp
S
GR
GS
[1 0 0 1 333.39999 106.50024] CT
1 0 1 RC
10.0 ML
1.1 LW
N
-3 0 M
0 3.99 L
3 0 L
0 -3.99 L
cp
S
GR
GS
[1 0 0 1 376.79999 98.7094] CT
1 0 1 RC
10.0 ML
1.1 LW
N
-3 0 M
0 3.99 L
3 0 L
0 -3.99 L
cp
S
GR
GS
[1 0 0 1 420.20001 75.41376] CT
1 0 1 RC
10.0 ML
1.1 LW
N
-3 0 M
0 3.99 L
3 0 L
0 -3.99 L
cp
S
GR
GS
[1 0 0 1 463.60001 66.1281] CT
1 0 1 RC
10.0 ML
1.1 LW
N
-3 0 M
0 3.99 L
3 0 L
0 -3.99 L
cp
S
GR
GS
[1 0 0 1 507 58.71994] CT
1 0 1 RC
10.0 ML
1.1 LW
N
-3 0 M
0 3.99 L
3 0 L
0 -3.99 L
cp
S
GR
GS
0 1 1 RC
1 LJ
1.1 LW
N
73 263.835 M
116.4 223.402 L
159.8 213.898 L
203.2 138.952 L
246.6 136.335 L
290 134.442 L
333.4 108.39 L
376.8 108.39 L
420.2 74.642 L
463.6 66.415 L
507 58.72 L
S
GR
GS
[1 0 0 1 73 263.83505] CT
0 1 1 RC
10.0 ML
1.1 LW
N
-2 -2 M
-2 2 L
2 2 L
2 -2 L
cp
S
GR
GS
[1 0 0 1 116.4 223.40181] CT
0 1 1 RC
10.0 ML
1.1 LW
N
-2 -2 M
-2 2 L
2 2 L
2 -2 L
cp
S
GR
GS
[1 0 0 1 159.8 213.89798] CT
0 1 1 RC
10.0 ML
1.1 LW
N
-2 -2 M
-2 2 L
2 2 L
2 -2 L
cp
S
GR
GS
[1 0 0 1 203.2 138.95187] CT
0 1 1 RC
10.0 ML
1.1 LW
N
-2 -2 M
-2 2 L
2 2 L
2 -2 L
cp
S
GR
GS
[1 0 0 1 246.60001 136.33505] CT
0 1 1 RC
10.0 ML
1.1 LW
N
-2 -2 M
-2 2 L
2 2 L
2 -2 L
cp
S
GR
GS
[1 0 0 1 290 134.44197] CT
0 1 1 RC
10.0 ML
1.1 LW
N
-2 -2 M
-2 2 L
2 2 L
2 -2 L
cp
S
GR
GS
[1 0 0 1 333.39999 108.38975] CT
0 1 1 RC
10.0 ML
1.1 LW
N
-2 -2 M
-2 2 L
2 2 L
2 -2 L
cp
S
GR
GS
[1 0 0 1 376.79999 108.38975] CT
0 1 1 RC
10.0 ML
1.1 LW
N
-2 -2 M
-2 2 L
2 2 L
2 -2 L
cp
S
GR
GS
[1 0 0 1 420.20001 74.64175] CT
0 1 1 RC
10.0 ML
1.1 LW
N
-2 -2 M
-2 2 L
2 2 L
2 -2 L
cp
S
GR
GS
[1 0 0 1 463.60001 66.41534] CT
0 1 1 RC
10.0 ML
1.1 LW
N
-2 -2 M
-2 2 L
2 2 L
2 -2 L
cp
S
GR
GS
[1 0 0 1 507 58.71994] CT
0 1 1 RC
10.0 ML
1.1 LW
N
-2 -2 M
-2 2 L
2 2 L
2 -2 L
cp
S
GR
GS
0.149 GC
2 setlinecap
1 LJ
0.5 LW
N
73 374 M
507 374 L
S
GR
GS
0.149 GC
2 setlinecap
1 LJ
0.5 LW
N
73 31.5 M
507 31.5 L
S
GR
GS
0.149 GC
2 setlinecap
1 LJ
0.5 LW
N
73 374 M
73 369.66 L
S
GR
GS
0.149 GC
2 setlinecap
1 LJ
0.5 LW
N
116.4 374 M
116.4 369.66 L
S
GR
GS
0.149 GC
2 setlinecap
1 LJ
0.5 LW
N
159.8 374 M
159.8 369.66 L
S
GR
GS
0.149 GC
2 setlinecap
1 LJ
0.5 LW
N
203.2 374 M
203.2 369.66 L
S
GR
GS
0.149 GC
2 setlinecap
1 LJ
0.5 LW
N
246.6 374 M
246.6 369.66 L
S
GR
GS
0.149 GC
2 setlinecap
1 LJ
0.5 LW
N
290 374 M
290 369.66 L
S
GR
GS
0.149 GC
2 setlinecap
1 LJ
0.5 LW
N
333.4 374 M
333.4 369.66 L
S
GR
GS
0.149 GC
2 setlinecap
1 LJ
0.5 LW
N
376.8 374 M
376.8 369.66 L
S
GR
GS
0.149 GC
2 setlinecap
1 LJ
0.5 LW
N
420.2 374 M
420.2 369.66 L
S
GR
GS
0.149 GC
2 setlinecap
1 LJ
0.5 LW
N
463.6 374 M
463.6 369.66 L
S
GR
GS
0.149 GC
2 setlinecap
1 LJ
0.5 LW
N
507 374 M
507 369.66 L
S
GR
GS
0.149 GC
2 setlinecap
1 LJ
0.5 LW
N
73 31.5 M
73 35.84 L
S
GR
GS
0.149 GC
2 setlinecap
1 LJ
0.5 LW
N
116.4 31.5 M
116.4 35.84 L
S
GR
GS
0.149 GC
2 setlinecap
1 LJ
0.5 LW
N
159.8 31.5 M
159.8 35.84 L
S
GR
GS
0.149 GC
2 setlinecap
1 LJ
0.5 LW
N
203.2 31.5 M
203.2 35.84 L
S
GR
GS
0.149 GC
2 setlinecap
1 LJ
0.5 LW
N
246.6 31.5 M
246.6 35.84 L
S
GR
GS
0.149 GC
2 setlinecap
1 LJ
0.5 LW
N
290 31.5 M
290 35.84 L
S
GR
GS
0.149 GC
2 setlinecap
1 LJ
0.5 LW
N
333.4 31.5 M
333.4 35.84 L
S
GR
GS
0.149 GC
2 setlinecap
1 LJ
0.5 LW
N
376.8 31.5 M
376.8 35.84 L
S
GR
GS
0.149 GC
2 setlinecap
1 LJ
0.5 LW
N
420.2 31.5 M
420.2 35.84 L
S
GR
GS
0.149 GC
2 setlinecap
1 LJ
0.5 LW
N
463.6 31.5 M
463.6 35.84 L
S
GR
GS
0.149 GC
2 setlinecap
1 LJ
0.5 LW
N
507 31.5 M
507 35.84 L
S
GR
GS
[1 0 0 1 73 378.60001] CT
0.149 GC
/Helvetica 13 F
GS
[1 0 0 1 0 0] CT
-4 13 moveto 
1 -1 scale
(5) t 
GR
GR
GS
[1 0 0 1 116.4 378.60001] CT
0.149 GC
/Helvetica 13 F
GS
[1 0 0 1 0 0] CT
-4 13 moveto 
1 -1 scale
(6) t 
GR
GR
GS
[1 0 0 1 159.8 378.60001] CT
0.149 GC
/Helvetica 13 F
GS
[1 0 0 1 0 0] CT
-4 13 moveto 
1 -1 scale
(7) t 
GR
GR
GS
[1 0 0 1 203.2 378.60001] CT
0.149 GC
/Helvetica 13 F
GS
[1 0 0 1 0 0] CT
-4 13 moveto 
1 -1 scale
(8) t 
GR
GR
GS
[1 0 0 1 246.60001 378.60001] CT
0.149 GC
/Helvetica 13 F
GS
[1 0 0 1 0 0] CT
-4 13 moveto 
1 -1 scale
(9) t 
GR
GR
GS
[1 0 0 1 290 378.60001] CT
0.149 GC
/Helvetica 13 F
GS
[1 0 0 1 0 0] CT
-7.5 13 moveto 
1 -1 scale
(10) t 
GR
GR
GS
[1 0 0 1 333.39999 378.60001] CT
0.149 GC
/Helvetica 13 F
GS
[1 0 0 1 0 0] CT
-7.5 13 moveto 
1 -1 scale
(11) t 
GR
GR
GS
[1 0 0 1 376.79999 378.60001] CT
0.149 GC
/Helvetica 13 F
GS
[1 0 0 1 0 0] CT
-7.5 13 moveto 
1 -1 scale
(12) t 
GR
GR
GS
[1 0 0 1 420.20001 378.60001] CT
0.149 GC
/Helvetica 13 F
GS
[1 0 0 1 0 0] CT
-7.5 13 moveto 
1 -1 scale
(13) t 
GR
GR
GS
[1 0 0 1 463.60001 378.60001] CT
0.149 GC
/Helvetica 13 F
GS
[1 0 0 1 0 0] CT
-7.5 13 moveto 
1 -1 scale
(14) t 
GR
GR
GS
[1 0 0 1 507 378.60001] CT
0.149 GC
/Helvetica 13 F
GS
[1 0 0 1 0 0] CT
-7.5 13 moveto 
1 -1 scale
(15) t 
GR
GR
GS
[1 0 0 1 290.00021 395.10001] CT
0.149 GC
/Helvetica 14.3 F
GS
[1 0 0 1 0 0] CT
-91 14 moveto 
1 -1 scale
(Number of Measurements [k]) t 
GR
GR
GS
0.149 GC
2 setlinecap
1 LJ
0.5 LW
N
73 374 M
73 31.5 L
S
GR
GS
0.149 GC
2 setlinecap
1 LJ
0.5 LW
N
507 374 M
507 31.5 L
S
GR
GS
0.149 GC
2 setlinecap
1 LJ
0.5 LW
N
73 374 M
77.34 374 L
S
GR
GS
0.149 GC
2 setlinecap
1 LJ
0.5 LW
N
73 335.944 M
77.34 335.944 L
S
GR
GS
0.149 GC
2 setlinecap
1 LJ
0.5 LW
N
73 297.889 M
77.34 297.889 L
S
GR
GS
0.149 GC
2 setlinecap
1 LJ
0.5 LW
N
73 259.833 M
77.34 259.833 L
S
GR
GS
0.149 GC
2 setlinecap
1 LJ
0.5 LW
N
73 221.778 M
77.34 221.778 L
S
GR
GS
0.149 GC
2 setlinecap
1 LJ
0.5 LW
N
73 183.722 M
77.34 183.722 L
S
GR
GS
0.149 GC
2 setlinecap
1 LJ
0.5 LW
N
73 145.667 M
77.34 145.667 L
S
GR
GS
0.149 GC
2 setlinecap
1 LJ
0.5 LW
N
73 107.611 M
77.34 107.611 L
S
GR
GS
0.149 GC
2 setlinecap
1 LJ
0.5 LW
N
73 69.556 M
77.34 69.556 L
S
GR
GS
0.149 GC
2 setlinecap
1 LJ
0.5 LW
N
73 31.5 M
77.34 31.5 L
S
GR
GS
0.149 GC
2 setlinecap
1 LJ
0.5 LW
N
507 374 M
502.66 374 L
S
GR
GS
0.149 GC
2 setlinecap
1 LJ
0.5 LW
N
507 335.944 M
502.66 335.944 L
S
GR
GS
0.149 GC
2 setlinecap
1 LJ
0.5 LW
N
507 297.889 M
502.66 297.889 L
S
GR
GS
0.149 GC
2 setlinecap
1 LJ
0.5 LW
N
507 259.833 M
502.66 259.833 L
S
GR
GS
0.149 GC
2 setlinecap
1 LJ
0.5 LW
N
507 221.778 M
502.66 221.778 L
S
GR
GS
0.149 GC
2 setlinecap
1 LJ
0.5 LW
N
507 183.722 M
502.66 183.722 L
S
GR
GS
0.149 GC
2 setlinecap
1 LJ
0.5 LW
N
507 145.667 M
502.66 145.667 L
S
GR
GS
0.149 GC
2 setlinecap
1 LJ
0.5 LW
N
507 107.611 M
502.66 107.611 L
S
GR
GS
0.149 GC
2 setlinecap
1 LJ
0.5 LW
N
507 69.556 M
502.66 69.556 L
S
GR
GS
0.149 GC
2 setlinecap
1 LJ
0.5 LW
N
507 31.5 M
502.66 31.5 L
S
GR
GS
[1 0 0 1 68.39999 374] CT
0.149 GC
/Helvetica 13 F
GS
[1 0 0 1 0 0] CT
-8 5 moveto 
1 -1 scale
(0) t 
GR
GR
GS
[1 0 0 1 68.39999 335.94446] CT
0.149 GC
/Helvetica 13 F
GS
[1 0 0 1 0 0] CT
-19 5 moveto 
1 -1 scale
(0.1) t 
GR
GR
GS
[1 0 0 1 68.39999 297.88889] CT
0.149 GC
/Helvetica 13 F
GS
[1 0 0 1 0 0] CT
-19 5 moveto 
1 -1 scale
(0.2) t 
GR
GR
GS
[1 0 0 1 68.39999 259.83334] CT
0.149 GC
/Helvetica 13 F
GS
[1 0 0 1 0 0] CT
-19 5 moveto 
1 -1 scale
(0.3) t 
GR
GR
GS
[1 0 0 1 68.39999 221.77777] CT
0.149 GC
/Helvetica 13 F
GS
[1 0 0 1 0 0] CT
-19 5 moveto 
1 -1 scale
(0.4) t 
GR
GR
GS
[1 0 0 1 68.39999 183.72223] CT
0.149 GC
/Helvetica 13 F
GS
[1 0 0 1 0 0] CT
-19 5 moveto 
1 -1 scale
(0.5) t 
GR
GR
GS
[1 0 0 1 68.39999 145.66666] CT
0.149 GC
/Helvetica 13 F
GS
[1 0 0 1 0 0] CT
-19 5 moveto 
1 -1 scale
(0.6) t 
GR
GR
GS
[1 0 0 1 68.39999 107.61111] CT
0.149 GC
/Helvetica 13 F
GS
[1 0 0 1 0 0] CT
-19 5 moveto 
1 -1 scale
(0.7) t 
GR
GR
GS
[1 0 0 1 68.39999 69.55555] CT
0.149 GC
/Helvetica 13 F
GS
[1 0 0 1 0 0] CT
-19 5 moveto 
1 -1 scale
(0.8) t 
GR
GR
GS
[1 0 0 1 68.39999 31.50001] CT
0.149 GC
/Helvetica 13 F
GS
[1 0 0 1 0 0] CT
-19 5 moveto 
1 -1 scale
(0.9) t 
GR
GR
GS
[0 -1 1 0 46.90001 202.74985] CT
0.149 GC
/Helvetica 14.3 F
GS
[1 0 0 1 0 0] CT
-88.5 -3 moveto 
1 -1 scale
(Probability of Detection [PD]) t 
GR
GR
GS
1 GC
N
334 364 M
334 262.5 L
497 262.5 L
497 364 L
cp
f
GR
GS
[1 0 0 1 371 271.25] CT
/Helvetica 11.7 F
GS
[1 0 0 1 0 0] CT
0 4.5 moveto 
1 -1 scale
(Exhaustive Search) t 
GR
GR
GS
1 0 0 RC
1 LJ
0.5 LW
N
338 271.25 M
368 271.25 L
S
GR
GS
[1 0 0 1 371 285.25] CT
/Helvetica 11.7 F
GS
[1 0 0 1 0 0] CT
0 4.5 moveto 
1 -1 scale
(Fwd Greedy) t 
GR
GR
GS
0 1 0 RC
1 LJ
1.1 LW
N
338 285.25 M
368 285.25 L
S
GR
GS
[1 0 0 1 353 285.25] CT
0 1 0 RC
10.0 ML
1.1 LW
N
-2 -2 M
-2 2 L
2 2 L
2 -2 L
cp
S
GR
GS
[1 0 0 1 371 299.25] CT
/Helvetica 11.7 F
GS
[1 0 0 1 0 0] CT
0 4.5 moveto 
1 -1 scale
(Bck Greedy) t 
GR
GR
GS
1 0 1 RC
1 LJ
1.1 LW
N
338 299.25 M
368 299.25 L
S
GR
GS
[1 0 0 1 353 299.25] CT
1 0 1 RC
10.0 ML
1.1 LW
N
-3 0 M
0 3.99 L
3 0 L
0 -3.99 L
cp
S
GR
GS
[1 0 0 1 371 313.25] CT
/Helvetica 11.7 F
GS
[1 0 0 1 0 0] CT
0 4.5 moveto 
1 -1 scale
(Init Fwd Greedy) t 
GR
GR
GS
1 LJ
1.1 LW
N
338 313.25 M
368 313.25 L
S
GR
GS
[1 0 0 1 353 313.25] CT
10.0 ML
1.1 LW
N
2.5 -0.5 M
2.5 -2.157 1.157 -3.5 -0.5 -3.5 C
-2.157 -3.5 -3.5 -2.157 -3.5 -0.5 C
-3.5 1.157 -2.157 2.5 -0.5 2.5 C
1.157 2.5 2.5 1.157 2.5 -0.5 C
S
GR
GS
[1 0 0 1 371 327.25] CT
/Helvetica 11.7 F
GS
[1 0 0 1 0 0] CT
0 4.5 moveto 
1 -1 scale
(CVX minEig) t 
GR
GR
GS
0 1 1 RC
1 LJ
1.1 LW
N
338 327.25 M
368 327.25 L
S
GR
GS
[1 0 0 1 353 327.25] CT
0 1 1 RC
10.0 ML
1.1 LW
N
-2 -2 M
-2 2 L
2 2 L
2 -2 L
cp
S
GR
GS
[1 0 0 1 371 341.25] CT
/Helvetica 11.7 F
GS
[1 0 0 1 0 0] CT
0 4.5 moveto 
1 -1 scale
(Worst Case) t 
GR
GR
GS
1 0 0 RC
1 LJ
0.5 LW
N
338 341.25 M
368 341.25 L
S
GR
GS
[1 0 0 1 353 341.25] CT
1 0 0 RC
10.0 ML
N
0 -3 M
0 3 L
-3 0 M
3 0 L
S
GR
GS
[1 0 0 1 371 355.25] CT
/Helvetica 11.7 F
GS
[1 0 0 1 0 0] CT
0 4.5 moveto 
1 -1 scale
(PD of random samplers) t 
GR
GR
GS
0.902 GC
N
338 360.4 M
338 350.1 L
368 350.1 L
368 360.4 L
cp
f
GR
GS
0.149 GC
10.0 ML
0.5 LW
N
334 364 M
334 262.5 L
497 262.5 L
497 364 L
cp
S
GR
%%Trailer
%%Pages: 1
%%EOF
